<deployment-project plugin="plugin.ezdeploy" plugin-version="1.0">
  <configuration build-checksum="2123328736" file="D:\Drive\knee\kneeexp\expGUI\Gen0\Gen0_ver4.22\HarvesterExpGUI.prj" location="D:\Drive\knee\kneeexp\expGUI\Gen0\Gen0_ver4.22" name="HarvesterExpGUI" preferred-package-location="D:\Drive\knee\kneeexp\expGUI\Gen0\Gen0_ver4.22\HarvesterExpGUI\for_redistribution" preferred-package-type="package.type.exe" target="target.ezdeploy.standalone" target-name="MATLAB Compiler for Standalone Applications">
    <param.appname>HarvesterExpGUI</param.appname>
    <param.icon />
    <param.icons />
    <param.version>1.1</param.version>
    <param.authnamewatermark>Moran Gad</param.authnamewatermark>
    <param.email>moranga@bgu.ac.il</param.email>
    <param.company>BGU</param.company>
    <param.summary />
    <param.description />
    <param.screenshot>D:\Drive\knee\Exp.png</param.screenshot>
    <param.guid />
    <param.installpath.string>\BGU\HarvesterExpGUI\</param.installpath.string>
    <param.installpath.combo>option.installpath.programfiles</param.installpath.combo>
    <param.logo />
    <param.install.notes />
    <param.intermediate>${PROJECT_ROOT}\HarvesterExpGUI\for_testing</param.intermediate>
    <param.output>${PROJECT_ROOT}\HarvesterExpGUI\for_redistribution</param.output>
    <param.user.defined.mcr.options />
    <param.embed.ctf>true</param.embed.ctf>
    <param.server.ctf>${PROJECT_ROOT}\HarvesterExpGUI\for_testing\.ctf</param.server.ctf>
    <param.server.readme>${PROJECT_ROOT}\HarvesterExpGUI\for_testing\readme.txt</param.server.readme>
    <param.target.type>subtarget.standalone</param.target.type>
    <param.support.packages />
    <param.web.mcr>true</param.web.mcr>
    <param.package.mcr>false</param.package.mcr>
    <param.no.mcr>false</param.no.mcr>
    <param.web.mcr.name>MyAppInstaller_web</param.web.mcr.name>
    <param.package.mcr.name>MyAppInstaller_mcr</param.package.mcr.name>
    <param.no.mcr.name>MyAppInstaller_app</param.no.mcr.name>
    <param.windows.command.prompt>true</param.windows.command.prompt>
    <param.create.log>false</param.create.log>
    <param.log.file />
    <unset>
      <param.icon />
      <param.icons />
      <param.summary />
      <param.description />
      <param.guid />
      <param.installpath.string />
      <param.installpath.combo />
      <param.logo />
      <param.install.notes />
      <param.intermediate />
      <param.output />
      <param.user.defined.mcr.options />
      <param.embed.ctf />
      <param.server.ctf />
      <param.server.readme />
      <param.target.type />
      <param.support.packages />
      <param.web.mcr />
      <param.package.mcr />
      <param.no.mcr />
      <param.web.mcr.name />
      <param.package.mcr.name />
      <param.no.mcr.name />
      <param.windows.command.prompt />
      <param.create.log />
      <param.log.file />
    </unset>
    <fileset.main>
      <file>${PROJECT_ROOT}\expGUI.m</file>
    </fileset.main>
    <fileset.resources>
      <file>${PROJECT_ROOT}\Bytes2Int16.m</file>
      <file>${PROJECT_ROOT}\Bytes2Int32.m</file>
      <file>${PROJECT_ROOT}\CloseSScript.m</file>
      <file>${PROJECT_ROOT}\DataIn.m</file>
      <file>${PROJECT_ROOT}\DecodeMeasuredData.m</file>
      <file>${PROJECT_ROOT}\expGUI.fig</file>
      <file>${PROJECT_ROOT}\OpenSScript.m</file>
      <file>${PROJECT_ROOT}\PlotData.m</file>
      <file>${PROJECT_ROOT}\plotProf.m</file>
      <file>${PROJECT_ROOT}\readDataBuffer.m</file>
      <file>${PROJECT_ROOT}\setGlobalParams.m</file>
      <file>${PROJECT_ROOT}\setGUIparams.m</file>
      <file>${PROJECT_ROOT}\setHarvestReferance1.m</file>
      <file>${PROJECT_ROOT}\SetProfileAsAngFunction.m</file>
      <file>${PROJECT_ROOT}\UpdatProfile.m</file>
    </fileset.resources>
    <fileset.package />
    <build-deliverables>
      <file location="${PROJECT_ROOT}\HarvesterExpGUI\for_testing" name="readme.txt" optional="true">D:\Drive\knee\kneeexp\expGUI\Gen0\Gen0_ver4.22\HarvesterExpGUI\for_testing\readme.txt</file>
      <file location="${PROJECT_ROOT}\HarvesterExpGUI\for_testing" name="HarvesterExpGUI.exe" optional="false">D:\Drive\knee\kneeexp\expGUI\Gen0\Gen0_ver4.22\HarvesterExpGUI\for_testing\HarvesterExpGUI.exe</file>
      <file location="${PROJECT_ROOT}\HarvesterExpGUI\for_testing" name="splash.png" optional="false">D:\Drive\knee\kneeexp\expGUI\Gen0\Gen0_ver4.22\HarvesterExpGUI\for_testing\splash.png</file>
    </build-deliverables>
    <workflow />
    <matlab>
      <root>C:\Program Files\MATLAB\R2014a</root>
      <toolboxes>
        <toolbox name="matlabhdlcoder" />
        <toolbox name="fixedpoint" />
        <toolbox name="embeddedcoder" />
        <toolbox name="matlabcoder" />
      </toolboxes>
      <toolbox>
        <matlabhdlcoder>
          <enabled>true</enabled>
        </matlabhdlcoder>
      </toolbox>
      <toolbox>
        <fixedpoint>
          <enabled>true</enabled>
        </fixedpoint>
      </toolbox>
      <toolbox>
        <embeddedcoder>
          <enabled>true</enabled>
        </embeddedcoder>
      </toolbox>
      <toolbox>
        <matlabcoder>
          <enabled>true</enabled>
        </matlabcoder>
      </toolbox>
    </matlab>
    <platform>
      <unix>false</unix>
      <mac>false</mac>
      <windows>true</windows>
      <win2k>false</win2k>
      <winxp>false</winxp>
      <vista>false</vista>
      <linux>false</linux>
      <solaris>false</solaris>
      <osver>6.1</osver>
      <os32>false</os32>
      <os64>true</os64>
      <arch>win64</arch>
      <matlab>true</matlab>
    </platform>
  </configuration>
</deployment-project>